{ "columns":14,
 "image":"34x34items.png",
 "imageheight":1020,
 "imagewidth":476,
 "margin":0,
 "name":"items",
 "spacing":0,
 "tilecount":420,
 "tiledversion":"1.2.4",
 "tileheight":34,
 "tiles":[
        {
         "id":136,
         "properties":[
                {
                 "name":"name",
                 "type":"string",
                 "value":"Candy Cane"
                }],
         "type":"weapon"
        }],
 "tilewidth":34,
 "type":"tileset",
 "version":1.2
}